<svg 
          width="23.370771408081055" 
          height="16.434783935546875" fill="none" 
          xmlns="http://www.w3.org/2000/svg">
          <path d="M 23.18488182419913 4.507826350135085 C 16.715191360374178 -1.503709282164241 6.6529742707921535 -1.5015082845924814 0.18583969680709433 4.507826350135085 C -0.05736252674765158 4.7338046236512 -0.062109738997895875 5.116427070794641 0.1730587849499383 5.350842845691659 L 1.4233957797853842 6.5970250562999615 C 1.6476092414021108 6.820802244780972 2.0083957878748446 6.8255714460300565 2.2413733028389755 6.61096545394165 C 7.5699121660315365 1.7069435875756813 15.80008027235338 1.7058425290243964 21.129714596506314 6.61096545394165 C 21.362692111470444 6.8255714460300565 21.723479493747572 6.820435406021456 21.9476929553643 6.5970250562999615 L 23.198029584535323 5.350842845691659 C 23.43283293161291 5.116427070794641 23.428084047753877 4.7338046236512 23.18488182419913 4.507826350135085 Z M 11.685361187111607 11.739131382533483 C 10.394490552196539 11.739131382533483 9.34828270901647 12.790150545102476 9.34828270901647 14.08695765904018 C 9.34828270901647 15.383764772977885 10.394490552196539 16.434783935546875 11.685361187111607 16.434783935546875 C 12.976231822026675 16.434783935546875 14.022439665206743 15.383764772977885 14.022439665206743 14.08695765904018 C 14.022439665206743 12.790150545102476 12.976231822026675 11.739131382533483 11.685361187111607 11.739131382533483 Z M 19.08623079984966 8.672650291046011 C 14.877298450196788 4.933370086658085 8.488675997859925 4.9374054354614465 4.284491017170622 8.672650291046011 C 4.032524740268472 8.896427479527022 4.024491040661561 9.284919136910698 4.263676423119146 9.521902853095007 L 5.521316589695096 10.768818356383626 C 5.7404176970165155 10.985992289759322 6.093170596120112 11.000666872207441 6.326513270541898 10.798166856558446 C 9.392102819040167 8.135951978908583 13.985557288864428 8.141821399060843 17.043843578559237 10.798166856558446 C 17.27718625298102 11.000666872207441 17.62993970928755 10.986359128518838 17.84904081660897 10.768818356383626 L 19.106680147380523 9.521902853095007 C 19.346230689295762 9.284919136910698 19.337831899881564 8.896060640767505 19.08623079984966 8.672650291046011 L 19.08623079984966 8.672650291046011 Z" fill="rgb(0,0,0)"/>
        </svg>