<svg 
          width="18.50187110900879" 
          height="15.652172088623047" fill="none" 
          xmlns="http://www.w3.org/2000/svg">
          <path d="M 18.50187110900879 0 L 13.632957659269634 0 L 13.632957659269634 15.652172088623047 L 18.50187110900879 15.652172088623047 L 18.50187110900879 0 Z M 11.685392279373971 4.891303777694702 L 6.816478829634817 4.891303777694702 L 6.816478829634817 15.652172088623047 L 11.685392279373971 15.652172088623047 L 11.685392279373971 4.891303777694702 Z M 4.868913449739155 9.782607555389404 L 0 9.782607555389404 L 0 15.652172088623047 L 4.868913449739155 15.652172088623047 L 4.868913449739155 9.782607555389404 Z" fill="rgb(0,0,0)"/>
        </svg>